{
  "code": 200,
  "meta": {
    "pagination": {
      "total": 1281,
      "pages": 65,
      "page": 1,
      "limit": 20
    }
  },
  "data": [
    {
      "id": 1,
      "name": "Bhagwanti mishra",
      "email": "bhagwanti_gowda@waelchi.org",
      "gender": "Female",
      "status": "Inactive",
      "created_at": "2020-11-05T03:50:03.763+05:30",
      "updated_at": "2020-11-05T16:39:31.401+05:30"
    },
    {
      "id": 2,
      "name": "Rep. Bhishma Ahuja",
      "email": "rep_ahuja_bhishma@metz-schmitt.io",
      "gender": "Male",
      "status": "Inactive",
      "created_at": "2020-11-05T03:50:03.775+05:30",
      "updated_at": "2020-11-05T03:50:03.775+05:30"
    },
    {
      "id": 3,
      "name": "Prof. Kamala Patil",
      "email": "patil_prof_kamala@orn-mcglynn.biz",
      "gender": "Female",
      "status": "Inactive",
      "created_at": "2020-11-05T03:50:03.792+05:30",
      "updated_at": "2020-11-05T03:50:03.792+05:30"
    },
    {
      "id": 4,
      "name": "Aatreya Varma",
      "email": "varma_aatreya@koelpin-roob.info",
      "gender": "Female",
      "status": "Inactive",
      "created_at": "2020-11-05T03:50:03.821+05:30",
      "updated_at": "2020-11-05T03:50:03.821+05:30"
    },
    {
      "id": 8,
      "name": "Mohsen",
      "email": "mohsen@mohse11111.nl",
      "gender": "Female",
      "status": "Active",
      "created_at": "2020-11-05T03:50:03.845+05:30",
      "updated_at": "2020-11-05T16:07:46.136+05:30"
    },
    {
      "id": 12,
      "name": "Bhooshan Patel",
      "email": "bhooshan_patel@will-kovacek.net",
      "gender": "Female",
      "status": "Active",
      "created_at": "2020-11-05T03:50:03.928+05:30",
      "updated_at": "2020-11-05T03:50:03.928+05:30"
    },
    {
      "id": 15,
      "name": "Rev. Anjushri Embranthiri",
      "email": "anjushri_embranthiri_rev@runolfsdottir.info",
      "gender": "Female",
      "status": "Inactive",
      "created_at": "2020-11-05T03:50:03.987+05:30",
      "updated_at": "2020-11-05T03:50:03.987+05:30"
    },
    {
      "id": 16,
      "name": "Oormila Verma",
      "email": "verma_oormila@hilpert-koepp.com",
      "gender": "Female",
      "status": "Inactive",
      "created_at": "2020-11-05T03:50:04.015+05:30",
      "updated_at": "2020-11-05T03:50:04.015+05:30"
    },
    {
      "id": 17,
      "name": "Gandharva Varman",
      "email": "gandharva_varman@mosciski.org",
      "gender": "Male",
      "status": "Active",
      "created_at": "2020-11-05T03:50:04.030+05:30",
      "updated_at": "2020-11-05T03:50:04.030+05:30"
    },
    {
      "id": 18,
      "name": "Vishwamitra Butt",
      "email": "vishwamitra_butt@bayer.net",
      "gender": "Male",
      "status": "Active",
      "created_at": "2020-11-05T03:50:04.040+05:30",
      "updated_at": "2020-11-05T03:50:04.040+05:30"
    },
    {
      "id": 19,
      "name": "Jai Kaur",
      "email": "jai_kaur@rau.net",
      "gender": "Female",
      "status": "Active",
      "created_at": "2020-11-05T03:50:04.050+05:30",
      "updated_at": "2020-11-05T03:50:04.050+05:30"
    },
    {
      "id": 20,
      "name": "Divakar Devar LLD",
      "email": "divakar_lld_devar@bruen.org",
      "gender": "Male",
      "status": "Inactive",
      "created_at": "2020-11-05T03:50:04.053+05:30",
      "updated_at": "2020-11-05T03:50:04.053+05:30"
    },
    {
      "id": 21,
      "name": "Miss Manoj Guneta",
      "email": "guneta_manoj_miss@orn.info",
      "gender": "Male",
      "status": "Inactive",
      "created_at": "2020-11-05T03:50:04.070+05:30",
      "updated_at": "2020-11-05T03:50:04.070+05:30"
    },
    {
      "id": 23,
      "name": "Meenakshi Kapoor",
      "email": "kapoor_meenakshi@quitzon.co",
      "gender": "Female",
      "status": "Inactive",
      "created_at": "2020-11-05T03:50:04.109+05:30",
      "updated_at": "2020-11-05T03:50:04.109+05:30"
    },
    {
      "id": 24,
      "name": "Vedanshi Ahuja",
      "email": "vedanshi_ahuja@oreilly.net",
      "gender": "Male",
      "status": "Inactive",
      "created_at": "2020-11-05T03:50:04.125+05:30",
      "updated_at": "2020-11-05T03:50:04.125+05:30"
    },
    {
      "id": 26,
      "name": "Washington Luis Cabral da Silva",
      "email": "wluissilva@live.com",
      "gender": "Male",
      "status": "Active",
      "created_at": "2020-11-05T03:50:04.166+05:30",
      "updated_at": "2020-11-05T08:36:06.753+05:30"
    },
    {
      "id": 27,
      "name": "Fr. Amish Namboothiri",
      "email": "amish_fr_namboothiri@greenholt.co",
      "gender": "Male",
      "status": "Inactive",
      "created_at": "2020-11-05T03:50:04.182+05:30",
      "updated_at": "2020-11-05T03:50:04.182+05:30"
    },
    {
      "id": 28,
      "name": "Ekaaksh Kaur",
      "email": "kaur_ekaaksh@stanton.com",
      "gender": "Female",
      "status": "Active",
      "created_at": "2020-11-05T03:50:04.197+05:30",
      "updated_at": "2020-11-05T03:50:04.197+05:30"
    },
    {
      "id": 29,
      "name": "Gudakesa Shah",
      "email": "shah_gudakesa@russel-wilderman.biz",
      "gender": "Male",
      "status": "Inactive",
      "created_at": "2020-11-05T03:50:04.228+05:30",
      "updated_at": "2020-11-05T03:50:04.228+05:30"
    },
    {
      "id": 30,
      "name": "Lakshmidhar Guneta",
      "email": "lakshmidhar_guneta@hagenes.co",
      "gender": "Male",
      "status": "Active",
      "created_at": "2020-11-05T03:50:04.236+05:30",
      "updated_at": "2020-11-05T03:50:04.236+05:30"
    }
  ]
}